6306_Case_study_1
…
##   Brewery_id              Brewery_Name          City State
## 1          1        NorthGate Brewing    Minneapolis    MN
## 2          2 Against the Grain Brewery    Louisville    KY
## 3          3  Jack's Abby Craft Lagers    Framingham    MA
## 4          4 Mike Hess Brewing Company     San Diego    CA
## 5          5   Fort Point Beer Company San Francisco    CA
## 6          6     COAST Brewing Company    Charleston    SC

Question 1: “How many breweries are present in each state?”

#summarize data
Brew=Breweries%>%group_by(State)%>%summarise(TotalBreweries=n())
Brew

## # A tibble: 51 x 2
##    State TotalBreweries
##    <chr>          <int>
##  1 " AK"              7
##  2 " AL"              3
##  3 " AR"              2
##  4 " AZ"             11
##  5 " CA"             39
##  6 " CO"             47
##  7 " CT"              8
##  8 " DC"              1
##  9 " DE"              2
## 10 " FL"             15
## # ... with 41 more rows
…
